{
  "manifest": {
    "publishingInformation": {
      "locales": {
        "it-IT": {
          "summary": "Sample Short Description",
          "examplePhrases": [
            "Alexa open hello decorator world",
            "hello",
            "help"
          ],
          "name": "alexa-arcteam",
          "description": "Sample Full Description"
        }
      },
      "isAvailableWorldwide": true,
      "testingInstructions": "Sample Testing Instructions.",
      "category": "KNOWLEDGE_AND_TRIVIA",
      "distributionCountries": []
    },
    "apis": {
      "custom": {
        "endpoint": {
          "sourceDir": "lambda/py/lambda_upload",
          "uri": "alexa-arcteam-postgres"
        }
      }
    },
    "manifestVersion": "1.0"
  }
}
