{
    "interactionModel": {
        "languageModel": {
            "invocationName": "team manager",
            "intents": [
                {
                    "name": "AMAZON.CancelIntent",
                    "samples": []
                },
                {
                    "name": "AMAZON.HelpIntent",
                    "samples": []
                },
                {
                    "name": "AMAZON.StopIntent",
                    "samples": []
                },
                {
                    "name": "AMAZON.NavigateHomeIntent",
                    "samples": []
                },
                {
                    "name": "openProject",
                    "slots": [
                        {
                            "name": "NAM",
                            "type": "NAM"
                        }
                    ],
                    "samples": [
                        "apri il progetto {NAM}",
                        "aprimi il progetto {NAM}",
                        "puoi aprire il progetto {NAM} ",
                        "per favore apri il progetto {NAM} ",
                        "apri il {NAM}"
                    ]
                },
                {
                    "name": "listProjects",
                    "slots": [
                        {
                            "name": "DAT",
                            "type": "AMAZON.DATE"
                        }
                    ],
                    "samples": [
                        "desidero i progetti",
                        "dammi la lista dei progetti",
                        "dammi i progetti del {DAT}",
                        "dammi i progetti di {DAT}",
                        "dammi la lista dei progetti del mese di {DAT}",
                        "vorrei i progetti del {DAT}"
                    ]
                },
                {
                    "name": "AMAZON.PauseIntent",
                    "samples": []
                },
                {
                    "name": "AMAZON.ResumeIntent",
                    "samples": []
                },
                {
                    "name": "takeNote",
                    "slots": [
                        {
                            "name": "MSG",
                            "type": "AMAZON.SearchQuery"
                        }
                    ],
                    "samples": [
                        "scrivi nota {MSG} ",
                        "prendi nota {MSG} "
                    ]
                }
            ],
            "types": [
                {
                    "name": "NAM",
                    "values": [
                        {
                            "name": {
                                "value": "castel penede"
                            }
                        },
                        {
                            "name": {
                                "value": "bambino di taung"
                            }
                        }
                    ]
                }
            ]
        }
    }
}